{
  "type": "service_account",
  "project_id": "prueba-babde",
  "private_key_id": "f30d1171530e0c521744975bc09612f1c439c837",
  "private_key": "-----BEGIN PRIVATE KEY-----\nMIIEvgIBADANBgkqhkiG9w0BAQEFAASCBKgwggSkAgEAAoIBAQCVh5H45FyEX/Wr\n60wou40VNgLBKoNo7c7YFEfEgnrtd7Fz5ZbCN8RqmXaug34TtNA4pzcWs6BnLJgr\ndumrTrrZTLQuP4xczJIOOt5O1aiSfv/QUYvRAt2KtdBrnmrVE9boLMiMHl0x5vso\nWVHK6wGGmz/Xl0HvRFYb+BOFD+WmKGExaP0SD0ruEeIlV4r9ut3MvDX83uPWV5N0\n8IgTmegtLHZjKzeIEr8niaxVf3EhpnWckQu8G7xQXOiOSHQhgiXkxDoCvb274Cfv\n08G4sOOzL0z9C3L6ZBHmqnAve2NJb8gxHRae55EQSKxJbUOHCl5+dlBsi4sTbME6\nkMIlkeW3AgMBAAECggEAJ94dF9i/KBYzuNJEHIog7BpZ8qnEnrnlD+ycU/McFmt2\n1zlMEF1xE6D2KUJq35MyfyBqSjW7WzbjHZeXZrLXk69lTP1pjaaHfJ7KfgduahzN\nVPwhBKm4as7eEouK3WPsRTwHfoBsBa2ZomDqM2mkHwEOrQspq8MzGEL05WHfL4Ul\nSbg8fNxOGNQoQK9kVTF63ZqRg4MxXZlTDU3FpwwD3Yv8wA8G+wUqGYdhNrknXMhT\nSrAOmh69uXgBcnUfRLocSKDa4kuQy+ynzSbTFcfhbzIMLJVZwKzxyjAiuHc4XdCa\npAIanugXLUKSRTEsjH52oqN7NMVPr/hHFwBVq6KetQKBgQDGSGo4jPHrN1QSUCCm\ny4OCdUrpiCj85SLBF/PO4FqBK+FewKVJUhmc+Ci4jY/+bXe/EkwmUoqb9wklQlLh\n8YxBp82LrT+OtPQE+5iHxr8h+RdZspb3p0aYXrHc5AUoLi7QOPm7amPtwpJQUfp6\nG/QPdslPGcRKjo07YOja2lFuPQKBgQDBDivO8UyJCMoPBh3UvQUvNlcUU+HsDvHQ\ndO3agubAfbAPnOaJepZ+3Ojv4eQfLGlBoltwfUoDjL972lO0x62ehN4TKmQgQHxm\nNC4YhnHnXRVfrNtAesHXkokIffTf3ky73Of10H2Kvmb+4vAqGKALwJEPpenuVNz1\nRcARQRC3AwKBgQDGIbA6h+RpBOV2Uyj9YpkrsCbGCq/iXNiImHWgwCDPuFhARUIk\nbOx5JKQUHijHtP0WKaN8G7iztnsmBwspCSP8qz/CFcFPyVOY8wtsiVWODgieMc2W\n9Eifkugp8JOSnetbV8N72gi2mVl49yHSCMKs/SaVawrw8VcBAYpMviDmhQKBgQCG\nPNZVZQ+00Xm+jKA9htmOBJj0N4eGXrXiHwwsvoy5GCxODul2etkeiXknI8k9q+Hc\nk4pFY7kNUtbqxdsifx3Iddb9OKK6klxtrKbIwuN83wq3pjgmU7Vpsii60Opup+Jv\nVqGsGTbSPKbdYOtiOhE/Wr0DRnitEjE6EzAET1vSBQKBgCSgMEKXcpNLe36FP/oW\nDwnlqN6izli4ljxfPrZW/LB2MymzNCvzcb4LxHnTAgVZr9ksx3OHSxJHDa9K6smW\nFQ/KF8uKyg7olJd6eaQiQZ7HmV2tLrcuFtouYF+6K881YskMAXmyZHG6GSE6m07v\nvGmtsDQUT+l1+GGCTzgSoevN\n-----END PRIVATE KEY-----\n",
  "client_email": "firebase-adminsdk-feg4o@prueba-babde.iam.gserviceaccount.com",
  "client_id": "108255892702106106500",
  "auth_uri": "https://accounts.google.com/o/oauth2/auth",
  "token_uri": "https://oauth2.googleapis.com/token",
  "auth_provider_x509_cert_url": "https://www.googleapis.com/oauth2/v1/certs",
  "client_x509_cert_url": "https://www.googleapis.com/robot/v1/metadata/x509/firebase-adminsdk-feg4o%40prueba-babde.iam.gserviceaccount.com"
}
